%YAML 1.1
%TAG !u! tag:unity3d.com,2011:
--- !u!74 &7400000
AnimationClip:
  m_ObjectHideFlags: 0
  m_CorrespondingSourceObject: {fileID: 0}
  m_PrefabInstance: {fileID: 0}
  m_PrefabAsset: {fileID: 0}
  m_Name: Run
  serializedVersion: 6
  m_Legacy: 0
  m_Compressed: 0
  m_UseHighQualityCurve: 1
  m_RotationCurves: []
  m_CompressedRotationCurves: []
  m_EulerCurves: []
  m_PositionCurves: []
  m_ScaleCurves: []
  m_FloatCurves: []
  m_PPtrCurves:
  - curve:
    - time: 0
      value: {fileID: 21300000, guid: 5f5bf2fc3eb067c459a4f3c7d19e0cf5, type: 3}
    - time: 0.15
      value: {fileID: 21300000, guid: 0dca422c80ddc654d9f70049c90bf4a0, type: 3}
    - time: 0.31666666
      value: {fileID: 21300000, guid: cfd99eef5629f5e4cbe78bd3376714fd, type: 3}
    - time: 0.5
      value: {fileID: 21300000, guid: 5a2b1dd938d8ab64b84821848826d696, type: 3}
    - time: 0.65
      value: {fileID: 21300000, guid: 9985254870ccc2e478d5340a762f0601, type: 3}
    - time: 0.81666666
      value: {fileID: 21300000, guid: e07e6ac5c1a771047992af284fffad1a, type: 3}
    - time: 0.96666664
      value: {fileID: 21300000, guid: 240b3cc68b220a34eae06c686706d78b, type: 3}
    attribute: m_Sprite
    path: 
    classID: 212
    script: {fileID: 0}
  m_SampleRate: 60
  m_WrapMode: 0
  m_Bounds:
    m_Center: {x: 0, y: 0, z: 0}
    m_Extent: {x: 0, y: 0, z: 0}
  m_ClipBindingConstant:
    genericBindings:
    - serializedVersion: 2
      path: 0
      attribute: 0
      script: {fileID: 0}
      typeID: 212
      customType: 23
      isPPtrCurve: 1
    pptrCurveMapping:
    - {fileID: 21300000, guid: 5f5bf2fc3eb067c459a4f3c7d19e0cf5, type: 3}
    - {fileID: 21300000, guid: 0dca422c80ddc654d9f70049c90bf4a0, type: 3}
    - {fileID: 21300000, guid: cfd99eef5629f5e4cbe78bd3376714fd, type: 3}
    - {fileID: 21300000, guid: 5a2b1dd938d8ab64b84821848826d696, type: 3}
    - {fileID: 21300000, guid: 9985254870ccc2e478d5340a762f0601, type: 3}
    - {fileID: 21300000, guid: e07e6ac5c1a771047992af284fffad1a, type: 3}
    - {fileID: 21300000, guid: 240b3cc68b220a34eae06c686706d78b, type: 3}
  m_AnimationClipSettings:
    serializedVersion: 2
    m_AdditiveReferencePoseClip: {fileID: 0}
    m_AdditiveReferencePoseTime: 0
    m_StartTime: 0
    m_StopTime: 0.9833333
    m_OrientationOffsetY: 0
    m_Level: 0
    m_CycleOffset: 0
    m_HasAdditiveReferencePose: 0
    m_LoopTime: 1
    m_LoopBlend: 0
    m_LoopBlendOrientation: 0
    m_LoopBlendPositionY: 0
    m_LoopBlendPositionXZ: 0
    m_KeepOriginalOrientation: 0
    m_KeepOriginalPositionY: 1
    m_KeepOriginalPositionXZ: 0
    m_HeightFromFeet: 0
    m_Mirror: 0
  m_EditorCurves: []
  m_EulerEditorCurves: []
  m_HasGenericRootTransform: 0
  m_HasMotionFloatCurves: 0
  m_Events: []
