%YAML 1.1
%TAG !u! tag:unity3d.com,2011:
--- !u!1 &3128911786755935903
GameObject:
  m_ObjectHideFlags: 0
  m_CorrespondingSourceObject: {fileID: 0}
  m_PrefabInstance: {fileID: 0}
  m_PrefabAsset: {fileID: 0}
  serializedVersion: 6
  m_Component:
  - component: {fileID: 7208594727084472959}
  - component: {fileID: 8051450789423427211}
  - component: {fileID: 1347710281452624695}
  m_Layer: 31
  m_Name: Layer1
  m_TagString: Untagged
  m_Icon: {fileID: 0}
  m_NavMeshLayer: 0
  m_StaticEditorFlags: 0
  m_IsActive: 1
--- !u!4 &7208594727084472959
Transform:
  m_ObjectHideFlags: 0
  m_CorrespondingSourceObject: {fileID: 0}
  m_PrefabInstance: {fileID: 0}
  m_PrefabAsset: {fileID: 0}
  m_GameObject: {fileID: 3128911786755935903}
  m_LocalRotation: {x: -0, y: -0, z: -0, w: 1}
  m_LocalPosition: {x: 0, y: 0, z: 0}
  m_LocalScale: {x: 1, y: 1, z: 1}
  m_Children: []
  m_Father: {fileID: 7522686416355655118}
  m_RootOrder: 0
  m_LocalEulerAnglesHint: {x: 0, y: 0, z: 0}
--- !u!1839735485 &8051450789423427211
Tilemap:
  m_ObjectHideFlags: 0
  m_CorrespondingSourceObject: {fileID: 0}
  m_PrefabInstance: {fileID: 0}
  m_PrefabAsset: {fileID: 0}
  m_GameObject: {fileID: 3128911786755935903}
  m_Enabled: 1
  m_Tiles:
  - first: {x: -7, y: -17, z: 0}
    second:
      serializedVersion: 2
      m_TileIndex: 25
      m_TileSpriteIndex: 25
      m_TileMatrixIndex: 0
      m_TileColorIndex: 0
      m_TileObjectToInstantiateIndex: 65535
      m_AllTileFlags: 1073741825
  - first: {x: -6, y: -17, z: 0}
    second:
      serializedVersion: 2
      m_TileIndex: 24
      m_TileSpriteIndex: 24
      m_TileMatrixIndex: 0
      m_TileColorIndex: 0
      m_TileObjectToInstantiateIndex: 65535
      m_AllTileFlags: 1073741825
  - first: {x: 1, y: -17, z: 0}
    second:
      serializedVersion: 2
      m_TileIndex: 23
      m_TileSpriteIndex: 17
      m_TileMatrixIndex: 0
      m_TileColorIndex: 0
      m_TileObjectToInstantiateIndex: 65535
      m_AllTileFlags: 1073741825
  - first: {x: 4, y: -17, z: 0}
    second:
      serializedVersion: 2
      m_TileIndex: 22
      m_TileSpriteIndex: 16
      m_TileMatrixIndex: 0
      m_TileColorIndex: 0
      m_TileObjectToInstantiateIndex: 65535
      m_AllTileFlags: 1073741825
  - first: {x: 7, y: -17, z: 0}
    second:
      serializedVersion: 2
      m_TileIndex: 21
      m_TileSpriteIndex: 15
      m_TileMatrixIndex: 0
      m_TileColorIndex: 0
      m_TileObjectToInstantiateIndex: 65535
      m_AllTileFlags: 1073741825
  - first: {x: -7, y: -16, z: 0}
    second:
      serializedVersion: 2
      m_TileIndex: 19
      m_TileSpriteIndex: 23
      m_TileMatrixIndex: 0
      m_TileColorIndex: 0
      m_TileObjectToInstantiateIndex: 65535
      m_AllTileFlags: 1073741825
  - first: {x: -6, y: -16, z: 0}
    second:
      serializedVersion: 2
      m_TileIndex: 18
      m_TileSpriteIndex: 22
      m_TileMatrixIndex: 0
      m_TileColorIndex: 0
      m_TileObjectToInstantiateIndex: 65535
      m_AllTileFlags: 1073741825
  - first: {x: 2, y: -16, z: 0}
    second:
      serializedVersion: 2
      m_TileIndex: 20
      m_TileSpriteIndex: 18
      m_TileMatrixIndex: 0
      m_TileColorIndex: 0
      m_TileObjectToInstantiateIndex: 65535
      m_AllTileFlags: 1073741825
  - first: {x: -19, y: -15, z: 0}
    second:
      serializedVersion: 2
      m_TileIndex: 9
      m_TileSpriteIndex: 9
      m_TileMatrixIndex: 0
      m_TileColorIndex: 0
      m_TileObjectToInstantiateIndex: 65535
      m_AllTileFlags: 1073741825
  - first: {x: -1, y: -15, z: 0}
    second:
      serializedVersion: 2
      m_TileIndex: 14
      m_TileSpriteIndex: 8
      m_TileMatrixIndex: 0
      m_TileColorIndex: 0
      m_TileObjectToInstantiateIndex: 65535
      m_AllTileFlags: 1073741825
  - first: {x: 2, y: -15, z: 0}
    second:
      serializedVersion: 2
      m_TileIndex: 16
      m_TileSpriteIndex: 13
      m_TileMatrixIndex: 0
      m_TileColorIndex: 0
      m_TileObjectToInstantiateIndex: 65535
      m_AllTileFlags: 1073741825
  - first: {x: 6, y: -15, z: 0}
    second:
      serializedVersion: 2
      m_TileIndex: 17
      m_TileSpriteIndex: 14
      m_TileMatrixIndex: 0
      m_TileColorIndex: 0
      m_TileObjectToInstantiateIndex: 65535
      m_AllTileFlags: 1073741825
  - first: {x: -26, y: -14, z: 0}
    second:
      serializedVersion: 2
      m_TileIndex: 13
      m_TileSpriteIndex: 21
      m_TileMatrixIndex: 0
      m_TileColorIndex: 0
      m_TileObjectToInstantiateIndex: 65535
      m_AllTileFlags: 1073741825
  - first: {x: -21, y: -11, z: 0}
    second:
      serializedVersion: 2
      m_TileIndex: 12
      m_TileSpriteIndex: 20
      m_TileMatrixIndex: 0
      m_TileColorIndex: 0
      m_TileObjectToInstantiateIndex: 65535
      m_AllTileFlags: 1073741825
  - first: {x: -9, y: -10, z: 0}
    second:
      serializedVersion: 2
      m_TileIndex: 2
      m_TileSpriteIndex: 0
      m_TileMatrixIndex: 0
      m_TileColorIndex: 0
      m_TileObjectToInstantiateIndex: 65535
      m_AllTileFlags: 1073741825
  - first: {x: -22, y: -2, z: 0}
    second:
      serializedVersion: 2
      m_TileIndex: 15
      m_TileSpriteIndex: 12
      m_TileMatrixIndex: 0
      m_TileColorIndex: 0
      m_TileObjectToInstantiateIndex: 65535
      m_AllTileFlags: 1073741825
  - first: {x: -16, y: 0, z: 0}
    second:
      serializedVersion: 2
      m_TileIndex: 7
      m_TileSpriteIndex: 19
      m_TileMatrixIndex: 0
      m_TileColorIndex: 0
      m_TileObjectToInstantiateIndex: 65535
      m_AllTileFlags: 1073741825
  - first: {x: -15, y: 0, z: 0}
    second:
      serializedVersion: 2
      m_TileIndex: 6
      m_TileSpriteIndex: 6
      m_TileMatrixIndex: 0
      m_TileColorIndex: 0
      m_TileObjectToInstantiateIndex: 65535
      m_AllTileFlags: 1073741825
  - first: {x: 33, y: 0, z: 0}
    second:
      serializedVersion: 2
      m_TileIndex: 5
      m_TileSpriteIndex: 3
      m_TileMatrixIndex: 0
      m_TileColorIndex: 0
      m_TileObjectToInstantiateIndex: 65535
      m_AllTileFlags: 1073741825
  - first: {x: 34, y: 0, z: 0}
    second:
      serializedVersion: 2
      m_TileIndex: 4
      m_TileSpriteIndex: 2
      m_TileMatrixIndex: 0
      m_TileColorIndex: 0
      m_TileObjectToInstantiateIndex: 65535
      m_AllTileFlags: 1073741825
  - first: {x: 35, y: 0, z: 0}
    second:
      serializedVersion: 2
      m_TileIndex: 3
      m_TileSpriteIndex: 1
      m_TileMatrixIndex: 0
      m_TileColorIndex: 0
      m_TileObjectToInstantiateIndex: 65535
      m_AllTileFlags: 1073741825
  - first: {x: -22, y: 1, z: 0}
    second:
      serializedVersion: 2
      m_TileIndex: 8
      m_TileSpriteIndex: 7
      m_TileMatrixIndex: 0
      m_TileColorIndex: 0
      m_TileObjectToInstantiateIndex: 65535
      m_AllTileFlags: 1073741825
  - first: {x: 8, y: 3, z: 0}
    second:
      serializedVersion: 2
      m_TileIndex: 1
      m_TileSpriteIndex: 5
      m_TileMatrixIndex: 0
      m_TileColorIndex: 0
      m_TileObjectToInstantiateIndex: 65535
      m_AllTileFlags: 1073741825
  - first: {x: 9, y: 3, z: 0}
    second:
      serializedVersion: 2
      m_TileIndex: 0
      m_TileSpriteIndex: 4
      m_TileMatrixIndex: 0
      m_TileColorIndex: 0
      m_TileObjectToInstantiateIndex: 65535
      m_AllTileFlags: 1073741825
  - first: {x: -19, y: 4, z: 0}
    second:
      serializedVersion: 2
      m_TileIndex: 11
      m_TileSpriteIndex: 11
      m_TileMatrixIndex: 0
      m_TileColorIndex: 0
      m_TileObjectToInstantiateIndex: 65535
      m_AllTileFlags: 1073741825
  - first: {x: -18, y: 4, z: 0}
    second:
      serializedVersion: 2
      m_TileIndex: 10
      m_TileSpriteIndex: 10
      m_TileMatrixIndex: 0
      m_TileColorIndex: 0
      m_TileObjectToInstantiateIndex: 65535
      m_AllTileFlags: 1073741825
  m_AnimatedTiles: {}
  m_TileAssetArray:
  - m_RefCount: 1
    m_Data: {fileID: 11400000, guid: a8fe61ded89bdf34181627b1bfdc1163, type: 2}
  - m_RefCount: 1
    m_Data: {fileID: 11400000, guid: 3a1cc915c27f9b248885ac0004384ffa, type: 2}
  - m_RefCount: 1
    m_Data: {fileID: 11400000, guid: 85f3881668cfcf041b2452d8d65f9a33, type: 2}
  - m_RefCount: 1
    m_Data: {fileID: 11400000, guid: ae804bffed7c7d045b8e3e75679c91db, type: 2}
  - m_RefCount: 1
    m_Data: {fileID: 11400000, guid: bdd435a0d97dcea4c88e7fc04edfc6de, type: 2}
  - m_RefCount: 1
    m_Data: {fileID: 11400000, guid: 35ab140464ad4a9449d36292054dd415, type: 2}
  - m_RefCount: 1
    m_Data: {fileID: 11400000, guid: 5f87f7249695d0d40bd1e020a1ced419, type: 2}
  - m_RefCount: 1
    m_Data: {fileID: 11400000, guid: 6fdda0177a6fe6e46a2429f0cc6f9a1b, type: 2}
  - m_RefCount: 1
    m_Data: {fileID: 11400000, guid: 97cf580ad26cfd445abd8140eba4245e, type: 2}
  - m_RefCount: 1
    m_Data: {fileID: 11400000, guid: 39912f6099dbf01488827cff271c4154, type: 2}
  - m_RefCount: 1
    m_Data: {fileID: 11400000, guid: 0b830436740b0f84fbbde33c7f31ce0c, type: 2}
  - m_RefCount: 1
    m_Data: {fileID: 11400000, guid: b5aed70f062c8f346a68816fea2c4dc8, type: 2}
  - m_RefCount: 1
    m_Data: {fileID: 11400000, guid: a87344a68fbbe3846a15113d867fe7ac, type: 2}
  - m_RefCount: 1
    m_Data: {fileID: 11400000, guid: 7f36fd8c18048174399886dbced8b0b0, type: 2}
  - m_RefCount: 1
    m_Data: {fileID: 11400000, guid: bd5db48a4e9264748a6fb34d9c5505d5, type: 2}
  - m_RefCount: 1
    m_Data: {fileID: 11400000, guid: c49b305a26208a848ae183b567337e7c, type: 2}
  - m_RefCount: 1
    m_Data: {fileID: 11400000, guid: 8f63f66347ab81f46849a3671a78e7ef, type: 2}
  - m_RefCount: 1
    m_Data: {fileID: 11400000, guid: 75ac575e979a4ef49a895f6d2d813493, type: 2}
  - m_RefCount: 1
    m_Data: {fileID: 11400000, guid: f1abe6bd6b65cbf40ba1a26b51773efc, type: 2}
  - m_RefCount: 1
    m_Data: {fileID: 11400000, guid: 4defabab8f328af4a8c3d93d393a3c96, type: 2}
  - m_RefCount: 1
    m_Data: {fileID: 11400000, guid: e1d845534e2dfe942b7021ccc3010e23, type: 2}
  - m_RefCount: 1
    m_Data: {fileID: 11400000, guid: 58b2410296dae53439672d8c27261ceb, type: 2}
  - m_RefCount: 1
    m_Data: {fileID: 11400000, guid: c23fef9d81faf1647ad76c9fa86c0ba8, type: 2}
  - m_RefCount: 1
    m_Data: {fileID: 11400000, guid: 7e1a4f2197366994e8cce83e2207acc1, type: 2}
  - m_RefCount: 1
    m_Data: {fileID: 11400000, guid: 14ff1caa64753c24c98d6171c9d9bc3c, type: 2}
  - m_RefCount: 1
    m_Data: {fileID: 11400000, guid: 2cfd73aaf1f33554ba781fee132194ae, type: 2}
  m_TileSpriteArray:
  - m_RefCount: 1
    m_Data: {fileID: 7657681755328959116, guid: 150671d6d3ba0144998bef186d4b4ea9,
      type: 3}
  - m_RefCount: 1
    m_Data: {fileID: -2376944820942771835, guid: 150671d6d3ba0144998bef186d4b4ea9,
      type: 3}
  - m_RefCount: 1
    m_Data: {fileID: -830858006723863817, guid: 150671d6d3ba0144998bef186d4b4ea9,
      type: 3}
  - m_RefCount: 1
    m_Data: {fileID: -3865615691702928371, guid: 150671d6d3ba0144998bef186d4b4ea9,
      type: 3}
  - m_RefCount: 1
    m_Data: {fileID: 7668942431699141051, guid: 150671d6d3ba0144998bef186d4b4ea9,
      type: 3}
  - m_RefCount: 1
    m_Data: {fileID: -2023767916532506085, guid: 150671d6d3ba0144998bef186d4b4ea9,
      type: 3}
  - m_RefCount: 1
    m_Data: {fileID: -9134449417693661896, guid: 150671d6d3ba0144998bef186d4b4ea9,
      type: 3}
  - m_RefCount: 1
    m_Data: {fileID: 3505341954046943286, guid: 150671d6d3ba0144998bef186d4b4ea9,
      type: 3}
  - m_RefCount: 1
    m_Data: {fileID: -2796373767048124268, guid: 150671d6d3ba0144998bef186d4b4ea9,
      type: 3}
  - m_RefCount: 1
    m_Data: {fileID: 7893509101633562092, guid: 150671d6d3ba0144998bef186d4b4ea9,
      type: 3}
  - m_RefCount: 1
    m_Data: {fileID: 6005384315849007658, guid: 150671d6d3ba0144998bef186d4b4ea9,
      type: 3}
  - m_RefCount: 1
    m_Data: {fileID: 1707672703365030134, guid: 150671d6d3ba0144998bef186d4b4ea9,
      type: 3}
  - m_RefCount: 1
    m_Data: {fileID: -769490126978045028, guid: 150671d6d3ba0144998bef186d4b4ea9,
      type: 3}
  - m_RefCount: 1
    m_Data: {fileID: 8008310171013271857, guid: 150671d6d3ba0144998bef186d4b4ea9,
      type: 3}
  - m_RefCount: 1
    m_Data: {fileID: -6011190912784093691, guid: 150671d6d3ba0144998bef186d4b4ea9,
      type: 3}
  - m_RefCount: 1
    m_Data: {fileID: -486363160235436888, guid: 150671d6d3ba0144998bef186d4b4ea9,
      type: 3}
  - m_RefCount: 1
    m_Data: {fileID: -506208812085195198, guid: 150671d6d3ba0144998bef186d4b4ea9,
      type: 3}
  - m_RefCount: 1
    m_Data: {fileID: -930307356115044387, guid: 150671d6d3ba0144998bef186d4b4ea9,
      type: 3}
  - m_RefCount: 1
    m_Data: {fileID: 2198691358015970307, guid: 150671d6d3ba0144998bef186d4b4ea9,
      type: 3}
  - m_RefCount: 1
    m_Data: {fileID: 4660138730982355035, guid: 150671d6d3ba0144998bef186d4b4ea9,
      type: 3}
  - m_RefCount: 1
    m_Data: {fileID: 1112293333476690195, guid: 150671d6d3ba0144998bef186d4b4ea9,
      type: 3}
  - m_RefCount: 1
    m_Data: {fileID: -952751972215984741, guid: 150671d6d3ba0144998bef186d4b4ea9,
      type: 3}
  - m_RefCount: 1
    m_Data: {fileID: 8574377597131556641, guid: 150671d6d3ba0144998bef186d4b4ea9,
      type: 3}
  - m_RefCount: 1
    m_Data: {fileID: 338643826697932801, guid: 150671d6d3ba0144998bef186d4b4ea9, type: 3}
  - m_RefCount: 1
    m_Data: {fileID: -5502039888936769233, guid: 150671d6d3ba0144998bef186d4b4ea9,
      type: 3}
  - m_RefCount: 1
    m_Data: {fileID: -4166017319972552214, guid: 150671d6d3ba0144998bef186d4b4ea9,
      type: 3}
  m_TileMatrixArray:
  - m_RefCount: 26
    m_Data:
      e00: 1
      e01: 0
      e02: 0
      e03: 0
      e10: 0
      e11: 1
      e12: 0
      e13: 0
      e20: 0
      e21: 0
      e22: 1
      e23: 0
      e30: 0
      e31: 0
      e32: 0
      e33: 1
  m_TileColorArray:
  - m_RefCount: 26
    m_Data: {r: 1, g: 1, b: 1, a: 1}
  m_TileObjectToInstantiateArray: []
  m_AnimationFrameRate: 1
  m_Color: {r: 1, g: 1, b: 1, a: 1}
  m_Origin: {x: -26, y: -30, z: 0}
  m_Size: {x: 67, y: 37, z: 1}
  m_TileAnchor: {x: 0.5, y: 0.5, z: 0}
  m_TileOrientation: 0
  m_TileOrientationMatrix:
    e00: 1
    e01: 0
    e02: 0
    e03: 0
    e10: 0
    e11: 1
    e12: 0
    e13: 0
    e20: 0
    e21: 0
    e22: 1
    e23: 0
    e30: 0
    e31: 0
    e32: 0
    e33: 1
--- !u!483693784 &1347710281452624695
TilemapRenderer:
  m_ObjectHideFlags: 0
  m_CorrespondingSourceObject: {fileID: 0}
  m_PrefabInstance: {fileID: 0}
  m_PrefabAsset: {fileID: 0}
  m_GameObject: {fileID: 3128911786755935903}
  m_Enabled: 0
  m_CastShadows: 0
  m_ReceiveShadows: 0
  m_DynamicOccludee: 0
  m_MotionVectors: 1
  m_LightProbeUsage: 0
  m_ReflectionProbeUsage: 0
  m_RayTracingMode: 0
  m_RenderingLayerMask: 1
  m_RendererPriority: 0
  m_Materials:
  - {fileID: 10754, guid: 0000000000000000f000000000000000, type: 0}
  m_StaticBatchInfo:
    firstSubMesh: 0
    subMeshCount: 0
  m_StaticBatchRoot: {fileID: 0}
  m_ProbeAnchor: {fileID: 0}
  m_LightProbeVolumeOverride: {fileID: 0}
  m_ScaleInLightmap: 1
  m_ReceiveGI: 1
  m_PreserveUVs: 0
  m_IgnoreNormalsForChartDetection: 0
  m_ImportantGI: 0
  m_StitchLightmapSeams: 1
  m_SelectedEditorRenderState: 0
  m_MinimumChartSize: 4
  m_AutoUVMaxDistance: 0.5
  m_AutoUVMaxAngle: 89
  m_LightmapParameters: {fileID: 0}
  m_SortingLayerID: 0
  m_SortingLayer: 0
  m_SortingOrder: 0
  m_ChunkSize: {x: 32, y: 32, z: 32}
  m_ChunkCullingBounds: {x: 8.71875, y: 10.8125, z: 0}
  m_MaxChunkCount: 16
  m_MaxFrameAge: 16
  m_SortOrder: 0
  m_Mode: 0
  m_DetectChunkCullingBounds: 0
  m_MaskInteraction: 0
--- !u!1 &3326389861146353245
GameObject:
  m_ObjectHideFlags: 0
  m_CorrespondingSourceObject: {fileID: 0}
  m_PrefabInstance: {fileID: 0}
  m_PrefabAsset: {fileID: 0}
  serializedVersion: 6
  m_Component:
  - component: {fileID: 7522686416355655118}
  - component: {fileID: 3489555645136744504}
  m_Layer: 31
  m_Name: TS4 L2 Decorations
  m_TagString: Untagged
  m_Icon: {fileID: 0}
  m_NavMeshLayer: 0
  m_StaticEditorFlags: 0
  m_IsActive: 1
--- !u!4 &7522686416355655118
Transform:
  m_ObjectHideFlags: 0
  m_CorrespondingSourceObject: {fileID: 0}
  m_PrefabInstance: {fileID: 0}
  m_PrefabAsset: {fileID: 0}
  m_GameObject: {fileID: 3326389861146353245}
  m_LocalRotation: {x: 0, y: 0, z: 0, w: 1}
  m_LocalPosition: {x: 0, y: 0, z: 0}
  m_LocalScale: {x: 1, y: 1, z: 1}
  m_Children:
  - {fileID: 7208594727084472959}
  m_Father: {fileID: 0}
  m_RootOrder: 0
  m_LocalEulerAnglesHint: {x: 0, y: 0, z: 0}
--- !u!156049354 &3489555645136744504
Grid:
  m_ObjectHideFlags: 0
  m_CorrespondingSourceObject: {fileID: 0}
  m_PrefabInstance: {fileID: 0}
  m_PrefabAsset: {fileID: 0}
  m_GameObject: {fileID: 3326389861146353245}
  m_Enabled: 1
  m_CellSize: {x: 0.6875, y: 1, z: 0}
  m_CellGap: {x: 0, y: 0, z: 0}
  m_CellLayout: 0
  m_CellSwizzle: 0
--- !u!114 &5249393410233753021
MonoBehaviour:
  m_ObjectHideFlags: 0
  m_CorrespondingSourceObject: {fileID: 0}
  m_PrefabInstance: {fileID: 0}
  m_PrefabAsset: {fileID: 0}
  m_GameObject: {fileID: 0}
  m_Enabled: 1
  m_EditorHideFlags: 0
  m_Script: {fileID: 12395, guid: 0000000000000000e000000000000000, type: 0}
  m_Name: Palette Settings
  m_EditorClassIdentifier: 
  cellSizing: 0
