%YAML 1.1
%TAG !u! tag:unity3d.com,2011:
--- !u!1 &224576902635760909
GameObject:
  m_ObjectHideFlags: 0
  m_CorrespondingSourceObject: {fileID: 0}
  m_PrefabInstance: {fileID: 0}
  m_PrefabAsset: {fileID: 0}
  serializedVersion: 6
  m_Component:
  - component: {fileID: 4984880980783517975}
  - component: {fileID: 2783156580542330673}
  m_Layer: 31
  m_Name: TS7 L3 Decorations 2
  m_TagString: Untagged
  m_Icon: {fileID: 0}
  m_NavMeshLayer: 0
  m_StaticEditorFlags: 0
  m_IsActive: 1
--- !u!4 &4984880980783517975
Transform:
  m_ObjectHideFlags: 0
  m_CorrespondingSourceObject: {fileID: 0}
  m_PrefabInstance: {fileID: 0}
  m_PrefabAsset: {fileID: 0}
  m_GameObject: {fileID: 224576902635760909}
  m_LocalRotation: {x: 0, y: 0, z: 0, w: 1}
  m_LocalPosition: {x: 0, y: 0, z: 0}
  m_LocalScale: {x: 1, y: 1, z: 1}
  m_Children:
  - {fileID: 3453271214275554476}
  m_Father: {fileID: 0}
  m_RootOrder: 0
  m_LocalEulerAnglesHint: {x: 0, y: 0, z: 0}
--- !u!156049354 &2783156580542330673
Grid:
  m_ObjectHideFlags: 0
  m_CorrespondingSourceObject: {fileID: 0}
  m_PrefabInstance: {fileID: 0}
  m_PrefabAsset: {fileID: 0}
  m_GameObject: {fileID: 224576902635760909}
  m_Enabled: 1
  m_CellSize: {x: 1.3125, y: 2.25, z: 0}
  m_CellGap: {x: 0, y: 0, z: 0}
  m_CellLayout: 0
  m_CellSwizzle: 0
--- !u!1 &2509824081989888400
GameObject:
  m_ObjectHideFlags: 0
  m_CorrespondingSourceObject: {fileID: 0}
  m_PrefabInstance: {fileID: 0}
  m_PrefabAsset: {fileID: 0}
  serializedVersion: 6
  m_Component:
  - component: {fileID: 3453271214275554476}
  - component: {fileID: 24588276057068955}
  - component: {fileID: 7564886597333675384}
  m_Layer: 31
  m_Name: Layer1
  m_TagString: Untagged
  m_Icon: {fileID: 0}
  m_NavMeshLayer: 0
  m_StaticEditorFlags: 0
  m_IsActive: 1
--- !u!4 &3453271214275554476
Transform:
  m_ObjectHideFlags: 0
  m_CorrespondingSourceObject: {fileID: 0}
  m_PrefabInstance: {fileID: 0}
  m_PrefabAsset: {fileID: 0}
  m_GameObject: {fileID: 2509824081989888400}
  m_LocalRotation: {x: -0, y: -0, z: -0, w: 1}
  m_LocalPosition: {x: 0, y: 0, z: 0}
  m_LocalScale: {x: 1, y: 1, z: 1}
  m_Children: []
  m_Father: {fileID: 4984880980783517975}
  m_RootOrder: 0
  m_LocalEulerAnglesHint: {x: 0, y: 0, z: 0}
--- !u!1839735485 &24588276057068955
Tilemap:
  m_ObjectHideFlags: 0
  m_CorrespondingSourceObject: {fileID: 0}
  m_PrefabInstance: {fileID: 0}
  m_PrefabAsset: {fileID: 0}
  m_GameObject: {fileID: 2509824081989888400}
  m_Enabled: 1
  m_Tiles:
  - first: {x: 9, y: -8, z: 0}
    second:
      serializedVersion: 2
      m_TileIndex: 22
      m_TileSpriteIndex: 21
      m_TileMatrixIndex: 0
      m_TileColorIndex: 0
      m_TileObjectToInstantiateIndex: 65535
      m_AllTileFlags: 1073741825
  - first: {x: 6, y: -6, z: 0}
    second:
      serializedVersion: 2
      m_TileIndex: 21
      m_TileSpriteIndex: 20
      m_TileMatrixIndex: 0
      m_TileColorIndex: 0
      m_TileObjectToInstantiateIndex: 65535
      m_AllTileFlags: 1073741825
  - first: {x: 7, y: -6, z: 0}
    second:
      serializedVersion: 2
      m_TileIndex: 20
      m_TileSpriteIndex: 19
      m_TileMatrixIndex: 0
      m_TileColorIndex: 0
      m_TileObjectToInstantiateIndex: 65535
      m_AllTileFlags: 1073741825
  - first: {x: 10, y: -6, z: 0}
    second:
      serializedVersion: 2
      m_TileIndex: 19
      m_TileSpriteIndex: 22
      m_TileMatrixIndex: 0
      m_TileColorIndex: 0
      m_TileObjectToInstantiateIndex: 65535
      m_AllTileFlags: 1073741825
  - first: {x: -4, y: -5, z: 0}
    second:
      serializedVersion: 2
      m_TileIndex: 25
      m_TileSpriteIndex: 25
      m_TileMatrixIndex: 0
      m_TileColorIndex: 0
      m_TileObjectToInstantiateIndex: 65535
      m_AllTileFlags: 1073741825
  - first: {x: 1, y: -5, z: 0}
    second:
      serializedVersion: 2
      m_TileIndex: 18
      m_TileSpriteIndex: 18
      m_TileMatrixIndex: 0
      m_TileColorIndex: 0
      m_TileObjectToInstantiateIndex: 65535
      m_AllTileFlags: 1073741825
  - first: {x: -4, y: -4, z: 0}
    second:
      serializedVersion: 2
      m_TileIndex: 24
      m_TileSpriteIndex: 24
      m_TileMatrixIndex: 0
      m_TileColorIndex: 0
      m_TileObjectToInstantiateIndex: 65535
      m_AllTileFlags: 1073741825
  - first: {x: 5, y: -4, z: 0}
    second:
      serializedVersion: 2
      m_TileIndex: 15
      m_TileSpriteIndex: 15
      m_TileMatrixIndex: 0
      m_TileColorIndex: 0
      m_TileObjectToInstantiateIndex: 65535
      m_AllTileFlags: 1073741825
  - first: {x: -2, y: -3, z: 0}
    second:
      serializedVersion: 2
      m_TileIndex: 27
      m_TileSpriteIndex: 27
      m_TileMatrixIndex: 0
      m_TileColorIndex: 0
      m_TileObjectToInstantiateIndex: 65535
      m_AllTileFlags: 1073741825
  - first: {x: 1, y: -3, z: 0}
    second:
      serializedVersion: 2
      m_TileIndex: 14
      m_TileSpriteIndex: 14
      m_TileMatrixIndex: 0
      m_TileColorIndex: 0
      m_TileObjectToInstantiateIndex: 65535
      m_AllTileFlags: 1073741825
  - first: {x: 10, y: -3, z: 0}
    second:
      serializedVersion: 2
      m_TileIndex: 23
      m_TileSpriteIndex: 23
      m_TileMatrixIndex: 0
      m_TileColorIndex: 0
      m_TileObjectToInstantiateIndex: 65535
      m_AllTileFlags: 1073741825
  - first: {x: -4, y: -2, z: 0}
    second:
      serializedVersion: 2
      m_TileIndex: 26
      m_TileSpriteIndex: 26
      m_TileMatrixIndex: 0
      m_TileColorIndex: 0
      m_TileObjectToInstantiateIndex: 65535
      m_AllTileFlags: 1073741825
  - first: {x: 4, y: -2, z: 0}
    second:
      serializedVersion: 2
      m_TileIndex: 16
      m_TileSpriteIndex: 16
      m_TileMatrixIndex: 0
      m_TileColorIndex: 0
      m_TileObjectToInstantiateIndex: 65535
      m_AllTileFlags: 1073741825
  - first: {x: 6, y: -2, z: 0}
    second:
      serializedVersion: 2
      m_TileIndex: 17
      m_TileSpriteIndex: 17
      m_TileMatrixIndex: 0
      m_TileColorIndex: 0
      m_TileObjectToInstantiateIndex: 65535
      m_AllTileFlags: 1073741825
  - first: {x: -1, y: -1, z: 0}
    second:
      serializedVersion: 2
      m_TileIndex: 3
      m_TileSpriteIndex: 3
      m_TileMatrixIndex: 0
      m_TileColorIndex: 0
      m_TileObjectToInstantiateIndex: 65535
      m_AllTileFlags: 1073741825
  - first: {x: 2, y: -1, z: 0}
    second:
      serializedVersion: 2
      m_TileIndex: 6
      m_TileSpriteIndex: 6
      m_TileMatrixIndex: 0
      m_TileColorIndex: 0
      m_TileObjectToInstantiateIndex: 65535
      m_AllTileFlags: 1073741825
  - first: {x: 11, y: -1, z: 0}
    second:
      serializedVersion: 2
      m_TileIndex: 13
      m_TileSpriteIndex: 13
      m_TileMatrixIndex: 0
      m_TileColorIndex: 0
      m_TileObjectToInstantiateIndex: 65535
      m_AllTileFlags: 1073741825
  - first: {x: -1, y: 0, z: 0}
    second:
      serializedVersion: 2
      m_TileIndex: 2
      m_TileSpriteIndex: 5
      m_TileMatrixIndex: 0
      m_TileColorIndex: 0
      m_TileObjectToInstantiateIndex: 65535
      m_AllTileFlags: 1073741825
  - first: {x: 0, y: 0, z: 0}
    second:
      serializedVersion: 2
      m_TileIndex: 0
      m_TileSpriteIndex: 1
      m_TileMatrixIndex: 0
      m_TileColorIndex: 0
      m_TileObjectToInstantiateIndex: 65535
      m_AllTileFlags: 1073741825
  - first: {x: 2, y: 0, z: 0}
    second:
      serializedVersion: 2
      m_TileIndex: 1
      m_TileSpriteIndex: 4
      m_TileMatrixIndex: 0
      m_TileColorIndex: 0
      m_TileObjectToInstantiateIndex: 65535
      m_AllTileFlags: 1073741825
  - first: {x: 5, y: 0, z: 0}
    second:
      serializedVersion: 2
      m_TileIndex: 7
      m_TileSpriteIndex: 7
      m_TileMatrixIndex: 0
      m_TileColorIndex: 0
      m_TileObjectToInstantiateIndex: 65535
      m_AllTileFlags: 1073741825
  - first: {x: 8, y: 0, z: 0}
    second:
      serializedVersion: 2
      m_TileIndex: 10
      m_TileSpriteIndex: 10
      m_TileMatrixIndex: 0
      m_TileColorIndex: 0
      m_TileObjectToInstantiateIndex: 65535
      m_AllTileFlags: 1073741825
  - first: {x: 12, y: 0, z: 0}
    second:
      serializedVersion: 2
      m_TileIndex: 12
      m_TileSpriteIndex: 12
      m_TileMatrixIndex: 0
      m_TileColorIndex: 0
      m_TileObjectToInstantiateIndex: 65535
      m_AllTileFlags: 1073741825
  - first: {x: 0, y: 1, z: 0}
    second:
      serializedVersion: 2
      m_TileIndex: 4
      m_TileSpriteIndex: 2
      m_TileMatrixIndex: 0
      m_TileColorIndex: 0
      m_TileObjectToInstantiateIndex: 65535
      m_AllTileFlags: 1073741825
  - first: {x: 2, y: 1, z: 0}
    second:
      serializedVersion: 2
      m_TileIndex: 5
      m_TileSpriteIndex: 0
      m_TileMatrixIndex: 0
      m_TileColorIndex: 0
      m_TileObjectToInstantiateIndex: 65535
      m_AllTileFlags: 1073741825
  - first: {x: 6, y: 1, z: 0}
    second:
      serializedVersion: 2
      m_TileIndex: 9
      m_TileSpriteIndex: 9
      m_TileMatrixIndex: 0
      m_TileColorIndex: 0
      m_TileObjectToInstantiateIndex: 65535
      m_AllTileFlags: 1073741825
  - first: {x: 8, y: 1, z: 0}
    second:
      serializedVersion: 2
      m_TileIndex: 8
      m_TileSpriteIndex: 8
      m_TileMatrixIndex: 0
      m_TileColorIndex: 0
      m_TileObjectToInstantiateIndex: 65535
      m_AllTileFlags: 1073741825
  - first: {x: 10, y: 1, z: 0}
    second:
      serializedVersion: 2
      m_TileIndex: 11
      m_TileSpriteIndex: 11
      m_TileMatrixIndex: 0
      m_TileColorIndex: 0
      m_TileObjectToInstantiateIndex: 65535
      m_AllTileFlags: 1073741825
  m_AnimatedTiles: {}
  m_TileAssetArray:
  - m_RefCount: 1
    m_Data: {fileID: 11400000, guid: 807ac01a2d199f744aeb1cfe1012a6e0, type: 2}
  - m_RefCount: 1
    m_Data: {fileID: 11400000, guid: a575628f21d7c48458b347f46157e976, type: 2}
  - m_RefCount: 1
    m_Data: {fileID: 11400000, guid: 53eb9747064f0454d9eb73a7f0bb29c6, type: 2}
  - m_RefCount: 1
    m_Data: {fileID: 11400000, guid: 8838195d79a90ba4f9422cb19e0e5306, type: 2}
  - m_RefCount: 1
    m_Data: {fileID: 11400000, guid: a0dee1a32a7c5b84f9550c998ca3b6d2, type: 2}
  - m_RefCount: 1
    m_Data: {fileID: 11400000, guid: b6055947e103a5d4a95806843f3d3fe5, type: 2}
  - m_RefCount: 1
    m_Data: {fileID: 11400000, guid: c1d66b0ad4106e24184aaeb6b4fbd0dd, type: 2}
  - m_RefCount: 1
    m_Data: {fileID: 11400000, guid: a6a7c1abaf5085c48b4b7b217c80be5e, type: 2}
  - m_RefCount: 1
    m_Data: {fileID: 11400000, guid: ada9a6a2c1d05884f949464b584b1340, type: 2}
  - m_RefCount: 1
    m_Data: {fileID: 11400000, guid: 68cd6d6a44b153543867c9b3960e59d0, type: 2}
  - m_RefCount: 1
    m_Data: {fileID: 11400000, guid: 9fd752fd0a7c6a741a4aa2e36028ba82, type: 2}
  - m_RefCount: 1
    m_Data: {fileID: 11400000, guid: f7c47f7ee21942e43bc42bef748940d8, type: 2}
  - m_RefCount: 1
    m_Data: {fileID: 11400000, guid: 90fa46d4fa0dd7e47b1ecfe00852a31c, type: 2}
  - m_RefCount: 1
    m_Data: {fileID: 11400000, guid: d3cfd2fbbcf99d14682495b4bf81ecc8, type: 2}
  - m_RefCount: 1
    m_Data: {fileID: 11400000, guid: 030a966c4be46bb46a5673de75893fb8, type: 2}
  - m_RefCount: 1
    m_Data: {fileID: 11400000, guid: 9ebf37164b5d7c440adc46bda225f5dc, type: 2}
  - m_RefCount: 1
    m_Data: {fileID: 11400000, guid: eb0c6e48632791348a0ac99e871adbfe, type: 2}
  - m_RefCount: 1
    m_Data: {fileID: 11400000, guid: 7f10b05ce9194674f87d68ab084f0cf6, type: 2}
  - m_RefCount: 1
    m_Data: {fileID: 11400000, guid: cbff5f47ccf3d364d80e1683a1ab58ce, type: 2}
  - m_RefCount: 1
    m_Data: {fileID: 11400000, guid: 46d2dacd4b1c3084582a86bf4e54eaf4, type: 2}
  - m_RefCount: 1
    m_Data: {fileID: 11400000, guid: b6849eb1a5888b0468b4e0b949210982, type: 2}
  - m_RefCount: 1
    m_Data: {fileID: 11400000, guid: 078a9bed39892ca499e32bba8b9edd7f, type: 2}
  - m_RefCount: 1
    m_Data: {fileID: 11400000, guid: 6a4a55154dcb5024fb9e6f07f4f9dbe6, type: 2}
  - m_RefCount: 1
    m_Data: {fileID: 11400000, guid: e93cc908302b8754db363c63ada2f8b2, type: 2}
  - m_RefCount: 1
    m_Data: {fileID: 11400000, guid: 5cf41e4dccb735c48a00b602c98c8274, type: 2}
  - m_RefCount: 1
    m_Data: {fileID: 11400000, guid: 85b69ecf59c4c6044977ca27c516958d, type: 2}
  - m_RefCount: 1
    m_Data: {fileID: 11400000, guid: 923f1fe88b27dfb4eb83cf7e813e04c8, type: 2}
  - m_RefCount: 1
    m_Data: {fileID: 11400000, guid: a316f50accfeb544a821544156439943, type: 2}
  m_TileSpriteArray:
  - m_RefCount: 1
    m_Data: {fileID: 21300010, guid: ddb1c7f7dc9bb8b4a890fe8e5a0d1f82, type: 3}
  - m_RefCount: 1
    m_Data: {fileID: 21300000, guid: ddb1c7f7dc9bb8b4a890fe8e5a0d1f82, type: 3}
  - m_RefCount: 1
    m_Data: {fileID: 21300008, guid: ddb1c7f7dc9bb8b4a890fe8e5a0d1f82, type: 3}
  - m_RefCount: 1
    m_Data: {fileID: 21300006, guid: ddb1c7f7dc9bb8b4a890fe8e5a0d1f82, type: 3}
  - m_RefCount: 1
    m_Data: {fileID: 21300002, guid: ddb1c7f7dc9bb8b4a890fe8e5a0d1f82, type: 3}
  - m_RefCount: 1
    m_Data: {fileID: 21300004, guid: ddb1c7f7dc9bb8b4a890fe8e5a0d1f82, type: 3}
  - m_RefCount: 1
    m_Data: {fileID: 21300012, guid: ddb1c7f7dc9bb8b4a890fe8e5a0d1f82, type: 3}
  - m_RefCount: 1
    m_Data: {fileID: 21300014, guid: ddb1c7f7dc9bb8b4a890fe8e5a0d1f82, type: 3}
  - m_RefCount: 1
    m_Data: {fileID: 21300018, guid: ddb1c7f7dc9bb8b4a890fe8e5a0d1f82, type: 3}
  - m_RefCount: 1
    m_Data: {fileID: 21300016, guid: ddb1c7f7dc9bb8b4a890fe8e5a0d1f82, type: 3}
  - m_RefCount: 1
    m_Data: {fileID: 21300020, guid: ddb1c7f7dc9bb8b4a890fe8e5a0d1f82, type: 3}
  - m_RefCount: 1
    m_Data: {fileID: 21300022, guid: ddb1c7f7dc9bb8b4a890fe8e5a0d1f82, type: 3}
  - m_RefCount: 1
    m_Data: {fileID: 21300024, guid: ddb1c7f7dc9bb8b4a890fe8e5a0d1f82, type: 3}
  - m_RefCount: 1
    m_Data: {fileID: 21300026, guid: ddb1c7f7dc9bb8b4a890fe8e5a0d1f82, type: 3}
  - m_RefCount: 1
    m_Data: {fileID: 21300028, guid: ddb1c7f7dc9bb8b4a890fe8e5a0d1f82, type: 3}
  - m_RefCount: 1
    m_Data: {fileID: 21300030, guid: ddb1c7f7dc9bb8b4a890fe8e5a0d1f82, type: 3}
  - m_RefCount: 1
    m_Data: {fileID: 21300032, guid: ddb1c7f7dc9bb8b4a890fe8e5a0d1f82, type: 3}
  - m_RefCount: 1
    m_Data: {fileID: 21300034, guid: ddb1c7f7dc9bb8b4a890fe8e5a0d1f82, type: 3}
  - m_RefCount: 1
    m_Data: {fileID: 21300036, guid: ddb1c7f7dc9bb8b4a890fe8e5a0d1f82, type: 3}
  - m_RefCount: 1
    m_Data: {fileID: 21300044, guid: ddb1c7f7dc9bb8b4a890fe8e5a0d1f82, type: 3}
  - m_RefCount: 1
    m_Data: {fileID: 21300042, guid: ddb1c7f7dc9bb8b4a890fe8e5a0d1f82, type: 3}
  - m_RefCount: 1
    m_Data: {fileID: 21300040, guid: ddb1c7f7dc9bb8b4a890fe8e5a0d1f82, type: 3}
  - m_RefCount: 1
    m_Data: {fileID: 21300038, guid: ddb1c7f7dc9bb8b4a890fe8e5a0d1f82, type: 3}
  - m_RefCount: 1
    m_Data: {fileID: 21300046, guid: ddb1c7f7dc9bb8b4a890fe8e5a0d1f82, type: 3}
  - m_RefCount: 1
    m_Data: {fileID: 21300054, guid: ddb1c7f7dc9bb8b4a890fe8e5a0d1f82, type: 3}
  - m_RefCount: 1
    m_Data: {fileID: 21300052, guid: ddb1c7f7dc9bb8b4a890fe8e5a0d1f82, type: 3}
  - m_RefCount: 1
    m_Data: {fileID: 21300050, guid: ddb1c7f7dc9bb8b4a890fe8e5a0d1f82, type: 3}
  - m_RefCount: 1
    m_Data: {fileID: 21300048, guid: ddb1c7f7dc9bb8b4a890fe8e5a0d1f82, type: 3}
  m_TileMatrixArray:
  - m_RefCount: 28
    m_Data:
      e00: 1
      e01: 0
      e02: 0
      e03: 0
      e10: 0
      e11: 1
      e12: 0
      e13: 0
      e20: 0
      e21: 0
      e22: 1
      e23: 0
      e30: 0
      e31: 0
      e32: 0
      e33: 1
  m_TileColorArray:
  - m_RefCount: 28
    m_Data: {r: 1, g: 1, b: 1, a: 1}
  m_TileObjectToInstantiateArray: []
  m_AnimationFrameRate: 1
  m_Color: {r: 1, g: 1, b: 1, a: 1}
  m_Origin: {x: -6, y: -8, z: 0}
  m_Size: {x: 19, y: 10, z: 1}
  m_TileAnchor: {x: 0.5, y: 0.5, z: 0}
  m_TileOrientation: 0
  m_TileOrientationMatrix:
    e00: 1
    e01: 0
    e02: 0
    e03: 0
    e10: 0
    e11: 1
    e12: 0
    e13: 0
    e20: 0
    e21: 0
    e22: 1
    e23: 0
    e30: 0
    e31: 0
    e32: 0
    e33: 1
--- !u!483693784 &7564886597333675384
TilemapRenderer:
  m_ObjectHideFlags: 0
  m_CorrespondingSourceObject: {fileID: 0}
  m_PrefabInstance: {fileID: 0}
  m_PrefabAsset: {fileID: 0}
  m_GameObject: {fileID: 2509824081989888400}
  m_Enabled: 0
  m_CastShadows: 0
  m_ReceiveShadows: 0
  m_DynamicOccludee: 0
  m_MotionVectors: 1
  m_LightProbeUsage: 0
  m_ReflectionProbeUsage: 0
  m_RayTracingMode: 0
  m_RenderingLayerMask: 1
  m_RendererPriority: 0
  m_Materials:
  - {fileID: 10754, guid: 0000000000000000f000000000000000, type: 0}
  m_StaticBatchInfo:
    firstSubMesh: 0
    subMeshCount: 0
  m_StaticBatchRoot: {fileID: 0}
  m_ProbeAnchor: {fileID: 0}
  m_LightProbeVolumeOverride: {fileID: 0}
  m_ScaleInLightmap: 1
  m_ReceiveGI: 1
  m_PreserveUVs: 0
  m_IgnoreNormalsForChartDetection: 0
  m_ImportantGI: 0
  m_StitchLightmapSeams: 1
  m_SelectedEditorRenderState: 0
  m_MinimumChartSize: 4
  m_AutoUVMaxDistance: 0.5
  m_AutoUVMaxAngle: 89
  m_LightmapParameters: {fileID: 0}
  m_SortingLayerID: 0
  m_SortingLayer: 0
  m_SortingOrder: 0
  m_ChunkSize: {x: 32, y: 32, z: 32}
  m_ChunkCullingBounds: {x: 2.3125, y: 1.5, z: 0}
  m_MaxChunkCount: 16
  m_MaxFrameAge: 16
  m_SortOrder: 0
  m_Mode: 0
  m_DetectChunkCullingBounds: 0
  m_MaskInteraction: 0
--- !u!114 &-990629763637532317
MonoBehaviour:
  m_ObjectHideFlags: 0
  m_CorrespondingSourceObject: {fileID: 0}
  m_PrefabInstance: {fileID: 0}
  m_PrefabAsset: {fileID: 0}
  m_GameObject: {fileID: 0}
  m_Enabled: 1
  m_EditorHideFlags: 0
  m_Script: {fileID: 12395, guid: 0000000000000000e000000000000000, type: 0}
  m_Name: Palette Settings
  m_EditorClassIdentifier: 
  cellSizing: 0
